Diagnostic Tools for Hierarchical (Multilevel) Linear Models • HLMdiag
…
library(lme4)
#> Loading required package: Matrix
library(HLMdiag)
#> 
#> Attaching package: 'HLMdiag'
#> The following object is masked from 'package:stats':
#> 
#>     covratio
data(sleepstudy, package = "lme4")
sleep.lmer <- lme4::lmer(Reaction ~ Days + (Days|Subject), data = sleepstudy) 

We calculate the unstandardized level-1 and marginal residuals for each observation below.

hlm_resid(sleep.lmer)
#> # A tibble: 180 x 10
#>       id Reaction  Days Subject  .resid .fitted .ls.resid .ls.fitted .mar.resid
#>    <dbl>    <dbl> <dbl> <fct>     <dbl>   <dbl>     <dbl>      <dbl>      <dbl>
#>  1     1     250.     0 308       -4.10    254.      5.37       244.      -1.85
#>  2     2     259.     1 308      -14.6     273.     -7.25       266.      -3.17
#>  3     3     251.     2 308      -42.2     293.    -36.9        288.     -21.5 
#>  4     4     321.     3 308        8.78    313.     12.0        309.      38.6 
#>  5     5     357.     4 308       24.5     332.     25.6        331.      63.6 
#>  6     6     415.     5 308       62.7     352.     61.7        353.     111.  
#>  7     7     382.     6 308       10.5     372.      7.42       375.      68.0 
#>  8     8     290.     7 308     -101.      391.   -106.         397.     -34.5 
#>  9     9     431.     8 308       19.6     411.     12.3        418.      95.4 
#> 10    10     466.     9 308       35.7     431.     26.3        440.     121.  
#> # … with 170 more rows, and 1 more variable: .mar.fitted <dbl>

For more information and examples of the functionality of hlm_resid(), see the residual diagnostics vignette.

Influence Analysis

We calculate influence diagnostics for each observation with the following line:

hlm_influence(sleep.lmer)
#> # A tibble: 180 x 9
#>       id Reaction  Days Subject  cooksd mdffits covtrace covratio
#>    <int>    <dbl> <dbl> <fct>     <dbl>   <dbl>    <dbl>    <dbl>
#>  1     1     250.     0 308     1.48e-4 1.47e-4 0.00887      1.01
#>  2     2     259.     1 308     1.10e-3 1.09e-3 0.00558      1.01
#>  3     3     251.     2 308     5.13e-3 5.11e-3 0.00330      1.00
#>  4     4     321.     3 308     1.14e-4 1.14e-4 0.00175      1.00
#>  5     5     357.     4 308     3.93e-4 3.92e-4 0.000778     1.00
#>  6     6     415.     5 308     1.07e-3 1.07e-3 0.000321     1.00
#>  7     7     382.     6 308     3.49e-5 3.49e-5 0.000361     1.00
#>  8     8     290.     7 308     8.81e-3 8.80e-3 0.000944     1.00
#>  9     9     431.     8 308     8.23e-4 8.21e-4 0.00219      1.00
#> 10    10     466.     9 308     5.99e-3 5.96e-3 0.00435      1.00
#> # … with 170 more rows, and 1 more variable: leverage.overall <dbl>
…
