Residual Diagnostics • HLMdiag
…
level - the level at which residuals should be extracted. By default, level = 1, returning both EB and LS level-1 residuals as well as marginal residuals. level can also be set to a grouping factor as defined in names(object@flist) in lme4 or in names(object$groups) in nlme. When set to a grouping factor, hlm_resid() returns both EB and LS higher-level residuals, otherwise known as the random effects for each group.

standardize - a logical indicating if the returned residuals should be standardized. By default, standardize = FALSE, returning unstandardized residuals. When standardize = TRUE, residuals are divided by the estimated standard error. For marginal residuals, when standardize = TRUE, the Cholesky residuals are returned.

include.ls - a logical indicating if LS residuals should be returned. By default, include.ls = TRUE. The LS method of estimating residuals is more computationally intensive than the EB method. Consequently, setting include.ls = FALSE substantially decreases the runtime on models with many observations.

data - only necessary if na.action = na.exclude for a lmerMod model object. data should specify the data frame used to fit the model containing observations with NA values.

General usage

To extract unstandardized level-1 residuals and marginal residuals, we use the following call.

library(HLMdiag)
hlm_resid(fm1)
#> # A tibble: 4,059 x 10
#>       id normexam standLRT school  .resid .fitted .ls.resid .ls.fitted
#>    <dbl>    <dbl>    <dbl> <fct>    <dbl>   <dbl>     <dbl>      <dbl>
#>  1     1    0.261    0.619 1      -0.464   0.725     -0.561    0.822  
#>  2     2    0.134    0.206 1      -0.358   0.492     -0.395    0.529  
#>  3     3   -1.72    -1.36  1      -1.33   -0.393     -1.14    -0.585  
#>  4     4    0.968    0.206 1       0.475   0.492      0.438    0.529  
#>  5     5    0.544    0.371 1      -0.0409  0.585     -0.102    0.647  
#>  6     6    1.73     2.19  1       0.125   1.61      -0.201    1.94   
#>  7     7    1.04    -1.12  1       1.29   -0.253      1.45    -0.409  
#>  8     8   -0.129   -1.03  1       0.0773 -0.206      0.221   -0.350  
#>  9     9   -0.939   -0.538 1      -1.01    0.0730    -0.941    0.00167
#> 10    10   -1.22    -1.45  1      -0.780  -0.439     -0.576   -0.643  
#> # … with 4,049 more rows, and 2 more variables: .mar.resid <dbl>,
#> #   .mar.fitted <dbl>
…
.ls.fitted the Least Squares fitted values

.mar.resid the unstandardized marginal residuals

.mar.fitted the marginal fitted values

Note that the columns containing the Empirical Bayes residuals are simply named .resid and .fitted. This is because both lme4::resid() and nlme::resid() use the EB method in estimating residuals, thus the analyst is likely more familiar with this type of residual.

standardize and include.ls

We can alter the output of the level-1 residuals using the standardize and include.ls parameters introduced above. The following call returns both the level-1 and marginal residuals divided by the estimated standard error and excludes the least squares residuals.

hlm_resid(fm1, standardize = TRUE, include.ls = FALSE)
#> # A tibble: 4,059 x 8
#>       id normexam standLRT school .std.resid .fitted .chol.mar.resid .mar.fitted
#>    <dbl>    <dbl>    <dbl> <fct>       <dbl>   <dbl>           <dbl>       <dbl>
#>  1     1    0.261    0.619 1         -0.616   0.725          -0.111        0.351
#>  2     2    0.134    0.206 1         -0.476   0.492           0.0353       0.118
#>  3     3   -1.72    -1.36  1         -1.77   -0.393          -1.19        -0.766
#>  4     4    0.968    0.206 1          0.632   0.492           1.21         0.118
#>  5     5    0.544    0.371 1         -0.0544  0.585           0.445        0.211
#>  6     6    1.73     2.19  1          0.167   1.61            0.618        1.24 
#>  7     7    1.04    -1.12  1          1.72   -0.253           2.06        -0.627
#>  8     8   -0.129   -1.03  1          0.103  -0.206           0.352       -0.580
#>  9     9   -0.939   -0.538 1         -1.35    0.0730         -1.07        -0.301
#> 10    10   -1.22    -1.45  1         -1.04   -0.439          -0.705       -0.813
#> # … with 4,049 more rows

hlm_resid() appends the EB and marginal residual columns to the mode frame. The names of the columns containing residuals now have the prefix .std to reflect the fact that they are standardized. Note that standardized marginal residuals are equivalent to the Cholesky residuals of a HLM and thus are named .chol.mar.resid.

Higher-level residuals

To access higher-level residuals, we can set the level parameter to a grouping factor as defined in names(object@flist) in lme4 or in names(object$groups) in nlme.

names(fm1@flist)
#> [1] "school"

To extract the school-level residuals, otherwise known as the predicted random effects for school, we use the following call.

hlm_resid(fm1, level = "school")
#> # A tibble: 65 x 3
#>    school .ranef.intercept .ls.intercept
#>    <chr>             <dbl>         <dbl>
#>  1 1                0.374         0.451 
#>  2 2                0.502         0.550 
#>  3 3                0.504         0.626 
#>  4 4                0.0181        0.0719
#>  5 5                0.240         0.329 
#>  6 6                0.541         0.671 
#>  7 7                0.379         0.467 
#>  8 8               -0.0262        0.0429
#>  9 9               -0.135        -0.169 
#> 10 10              -0.337        -0.257 
#> # … with 55 more rows
…
In the first example, when we try to call hlm_resid() on our model object, it throws an informative error asking for the data set used to fit the model. We provide this using the data parameter in the second example.

# incorrect:
hlm_resid(fm1.NA) 
#> Error in hlm_resid.lmerMod(fm1.NA): Please provide the data frame used to fit the model. This is necessary when the na.action is set to na.exclude

# correct:
hlm_resid(fm1.NA, data = Exam2) 
#> # A tibble: 4,059 x 10
#>       id school normexam standLRT  .resid .fitted .ls.resid .ls.fitted
#>    <dbl> <fct>     <dbl>    <dbl>   <dbl>   <dbl>     <dbl>      <dbl>
#>  1     1 1         0.261   NA     NA      NA         NA        NA     
#>  2     2 1         0.134   NA     NA      NA         NA        NA     
#>  3     3 1        -1.72    -1.36  -1.34   -0.381     -1.15     -0.575 
#>  4     4 1         0.968    0.206  0.464   0.504      0.423     0.545 
#>  5     5 1         0.544   NA     NA      NA         NA        NA     
#>  6     6 1         1.73     2.19   0.113   1.62      -0.224     1.96  
#>  7     7 1         1.04    -1.12   1.28   -0.241      1.44     -0.398 
#>  8     8 1        -0.129   -1.03   0.0653 -0.194      0.210    -0.339 
#>  9     9 1        -0.939   -0.538 -1.02    0.0850    -0.954     0.0142
#> 10    10 1        -1.22    -1.45  -0.792  -0.427     -0.585    -0.634 
#> # … with 4,049 more rows, and 2 more variables: .mar.resid <dbl>,
#> #   .mar.fitted <dbl>

Note that for the same model fit in nlme, we do not need to include the data parameter.

fm1.NA.lme <- nlme::lme(normexam ~ standLRT, random = ~1 | school, Exam2,  
               na.action = na.exclude)
hlm_resid(fm1.NA.lme)
#> # A tibble: 4,059 x 10
#>       id normexam standLRT school  .resid .fitted .ls.resid .ls.fitted
#>    <dbl>    <dbl>    <dbl> <fct>    <dbl>   <dbl>     <dbl>      <dbl>
#>  1     1    0.261   NA     1      NA      NA         NA        NA     
#>  2     2    0.134   NA     1      NA      NA         NA        NA     
#>  3     3   -1.72    -1.36  1      -1.34   -0.381     -1.15     -0.575 
#>  4     4    0.968    0.206 1       0.464   0.504      0.423     0.545 
#>  5     5    0.544   NA     1      NA      NA         NA        NA     
#>  6     6    1.73     2.19  1       0.113   1.62      -0.224     1.96  
#>  7     7    1.04    -1.12  1       1.28   -0.241      1.44     -0.398 
#>  8     8   -0.129   -1.03  1       0.0653 -0.194      0.210    -0.339 
#>  9     9   -0.939   -0.538 1      -1.02    0.0850    -0.954     0.0142
#> 10    10   -1.22    -1.45  1      -0.792  -0.427     -0.585    -0.634 
#> # … with 4,049 more rows, and 2 more variables: .mar.resid <dbl>,
#> #   .mar.fitted <dbl>
…
# lme4
names(fm2.lmer@flist)
#> [1] "classid:schoolid" "schoolid"
# nlme
names(fm2.lme$groups)
#> [1] "schoolid" "classid"

Note how the orders of the grouping factors are opposite for lme4 and nlme. In lme4, convention is to start at the lowest level of hierarchy and move upwards (in this case classid:schoolid, followed by schoolid). Grouping factors in nlme are given starting at the highest grouping and move down (schoolid, followed by classid). The order of classid and schoolid in the returned tibble is based on these conventions.

To extract the classroom-level random effects for fm2.lmer, we set level = "classid:schoolid".

# lme4
hlm_resid(fm2.lmer, level = "classid:schoolid")
#> # A tibble: 312 x 5
#>    group classid schoolid .ranef.intercept .ls.intercept
#>    <chr>   <int>    <int>            <dbl>         <dbl>
#>  1 160:1     160        1           1.64            4.15
#>  2 217:1     217        1          -0.433          -4.15
#>  3 197:2     197        2          -1.69          -12.9 
#>  4 211:2     211        2           2.51            6.58
#>  5 307:2     307        2           2.44            6.33
#>  6 11:3       11        3           3.87           -4.38
#>  7 137:3     137        3           5.56           16.1 
#>  8 145:3     145        3           8.10            6.62
#>  9 228:3     228        3          -0.0237        -18.4 
#> 10 48:4       48        4           3.77           44   
#> # … with 302 more rows

For the fm2.lme, we set level = "classid".

# nlme
hlm_resid(fm2.lme, level = "classid")
#> # A tibble: 312 x 5
#>    group schoolid classid .ranef.intercept .ls.intercept
#>    <chr>    <int>   <int>            <dbl>         <dbl>
#>  1 1/160        1     160           1.64            4.15
#>  2 1/217        1     217          -0.433          -4.15
#>  3 2/197        2     197          -1.69          -12.9 
#>  4 2/211        2     211           2.51            6.58
#>  5 2/307        2     307           2.44            6.33
#>  6 3/11         3      11           3.87           -4.38
#>  7 3/137        3     137           5.56           16.1 
#>  8 3/145        3     145           8.10            6.62
#>  9 3/228        3     228          -0.0235        -18.4 
#> 10 4/48         4      48           3.77           44   
#> # … with 302 more rows

Using hlm_resid() in context

Now that we have discussed how to extract all types of residuals for hierarchical models using hlm_resid(), we illustrate how to use those residuals in context to evaluate a model. We will diagnose the earlier model, fm1, fit on the Exam data set above. We use hlm_resid() to extract the standardized level-1 and marginal residuals.

resid1_fm1 <- hlm_resid(fm1, level = 1, standardize = TRUE)
resid1_fm1
#> # A tibble: 4,059 x 10
#>       id normexam standLRT school .std.resid .fitted .std.ls.resid .ls.fitted
#>    <dbl>    <dbl>    <dbl> <fct>       <dbl>   <dbl>         <dbl>      <dbl>
#>  1     1    0.261    0.619 1         -0.616   0.725         -0.682    0.822  
#>  2     2    0.134    0.206 1         -0.476   0.492         -0.480    0.529  
#>  3     3   -1.72    -1.36  1         -1.77   -0.393         -1.40    -0.585  
#>  4     4    0.968    0.206 1          0.632   0.492          0.532    0.529  
#>  5     5    0.544    0.371 1         -0.0544  0.585         -0.124    0.647  
#>  6     6    1.73     2.19  1          0.167   1.61          -0.251    1.94   
#>  7     7    1.04    -1.12  1          1.72   -0.253          1.78    -0.409  
#>  8     8   -0.129   -1.03  1          0.103  -0.206          0.271   -0.350  
#>  9     9   -0.939   -0.538 1         -1.35    0.0730        -1.15     0.00167
#> 10    10   -1.22    -1.45  1         -1.04   -0.439         -0.712   -0.643  
#> # … with 4,049 more rows, and 2 more variables: .chol.mar.resid <dbl>,
#> #   .mar.fitted <dbl>
…
The addition of the quadratic and cubic terms seems to have improved the level-1 residuals. Additionally, there don’t appear to be any large outliers that might need to be removed. We double check the LS level-1 residuals for fm1, plotting them against the LS fitted values appended to the model frame by hlm_resid().

ggplot(data = resid1_fm1b, aes(x = .ls.fitted, y = .std.ls.resid)) + 
  geom_point(alpha = 0.2) +
  geom_smooth(method = "loess", se = FALSE) + 
  labs(x = "LS fitted values",
       y = "LS level-1 residuals", 
       title = "LS residuals against LS fitted values")

The LS level-1 residuals give no indication that the model violates any assumptions of an HLM. Because there are no glaring issues, we move on to the higher-level residuals, again plotting the output of hlm_resid().

resid2_fm1b <- hlm_resid(fm1b, level = "school", include.ls = FALSE)
resid2_fm1b
#> # A tibble: 65 x 2
#>    school .ranef.intercept
#>    <chr>             <dbl>
#>  1 1                0.374 
#>  2 2                0.498 
#>  3 3                0.502 
#>  4 4                0.0211
#>  5 5                0.247 
#>  6 6                0.538 
#>  7 7                0.390 
#>  8 8               -0.0220
#>  9 9               -0.156 
#> 10 10              -0.331 
#> # … with 55 more rows
…
