Influence Diagnostics • HLMdiag
…
To explore the functionality of hlm_influence(), we will use the data set classroom (West et. al, 2014). The data set consists of 1,190 observations of students. Students are grouped within classes, which are nested within schools. There are 312 distinct classes nested within 107 schools.

data("classroom", package = "WWGbook")

#> # A tibble: 1,190 x 12
#>      sex minority mathkind mathgain   ses yearstea mathknow housepov mathprep
#>    <int>    <int>    <int>    <int> <dbl>    <dbl>    <dbl>    <dbl>    <dbl>
#>  1     1        1      448       32  0.46        1    NA       0.082     2   
#>  2     0        1      460      109 -0.27        1    NA       0.082     2   
#>  3     1        1      511       56 -0.03        1    NA       0.082     2   
#>  4     0        1      449       83 -0.38        2    -0.11    0.082     3.25
#>  5     0        1      425       53 -0.03        2    -0.11    0.082     3.25
#>  6     1        1      450       65  0.76        2    -0.11    0.082     3.25
#>  7     0        1      452       51 -0.03        2    -0.11    0.082     3.25
#>  8     0        1      443       66  0.2         2    -0.11    0.082     3.25
#>  9     1        1      422       88  0.64        2    -0.11    0.082     3.25
#> 10     0        1      480       -7  0.13        2    -0.11    0.082     3.25
#>    classid schoolid childid
#>      <int>    <int>   <int>
#>  1     160        1       1
#>  2     160        1       2
#>  3     160        1       3
#>  4     217        1       4
#>  5     217        1       5
#>  6     217        1       6
#>  7     217        1       7
#>  8     217        1       8
#>  9     217        1       9
#> 10     217        1      10
#> # … with 1,180 more rows

We will fit a simple three-level hierarchical linear model using the lme4 package:

class.lmer <- lme4::lmer(mathgain ~ mathkind + sex + minority + ses + housepov + (1|schoolid/classid), data = classroom)

Obtain influence diagnostics at different levels with level

hlm_influence() calculates influence diagnostics for individual cases, or larger groups. For example, to obtain a tibble with influence diagnostics for all 1,190 students we use the following:

infl <- hlm_influence(class.lmer, level = 1)

#> # A tibble: 1,190 x 14
#>       id mathgain mathkind   sex minority   ses housepov schoolid classid
#>    <int>    <int>    <int> <int>    <int> <dbl>    <dbl>    <int>   <int>
#>  1     1       32      448     1        1  0.46    0.082        1     160
#>  2     2      109      460     0        1 -0.27    0.082        1     160
#>  3     3       56      511     1        1 -0.03    0.082        1     160
#>  4     4       83      449     0        1 -0.38    0.082        1     217
#>  5     5       53      425     0        1 -0.03    0.082        1     217
#>  6     6       65      450     1        1  0.76    0.082        1     217
#>  7     7       51      452     0        1 -0.03    0.082        1     217
#>  8     8       66      443     0        1  0.2     0.082        1     217
#>  9     9       88      422     1        1  0.64    0.082        1     217
#> 10    10       -7      480     0        1  0.13    0.082        1     217
#>          cooksd      mdffits covtrace covratio leverage.overall
#>           <dbl>        <dbl>    <dbl>    <dbl>            <dbl>
#>  1 0.00106      0.00106       0.00289     1.00           0.121 
#>  2 0.00143      0.00143       0.00246     1.00           0.121 
#>  3 0.000336     0.000335      0.00378     1.00           0.122 
#>  4 0.000225     0.000225      0.00169     1.00           0.0780
#>  5 0.000173     0.000172      0.00178     1.00           0.0780
#>  6 0.000000807  0.000000804   0.00321     1.00           0.0794
#>  7 0.0000233    0.0000233     0.00113     1.00           0.0775
#>  8 0.0000000504 0.0000000504  0.00120     1.00           0.0775
#>  9 0.000130     0.000129      0.00401     1.00           0.0801
#> 10 0.00108      0.00108       0.00147     1.00           0.0778
#> # … with 1,180 more rows

Note that the parameter used to select individual observations is now called level, not group. Previous versions of HLMdiag used the group parameter for influence diagnostics, where group = NULL was the default, and users could choose to delete groups instead by setting group equal to level names. As of HLMdiag version 0.4.0, group has been replaced by level. level defaults to level = 1 which deletes individual observations, exactly how group = NULL used to work.

The resulting tibble can be used along with dotplot_diag() to identify potentially influential observations using either an internal cutoff of 3*IQR or a user-specified cutoff. For example, the plot shown below reveals and labels all observations above the internally calculated cutoff for Cook’s distance.

dotplot_diag(infl$cooksd, name = "cooks.distance", cutoff = "internal")

The plot illustrates that there are many observations with a Cook’s distance value above the internally calculated cutoff. dotplot_diag() labels the top 5, which is difficult to see in this case. Rather than investigate all observations above the cutoff, we may be interested in the observations with the highest Cook’s distance values. The tibble returned by hlm_influence() provides an easy way to do this when used with the arrange() function from dplyr.

tb1 <- infl %>%
  arrange(desc(cooksd))

#> # A tibble: 1,190 x 14
#>       id mathgain mathkind   sex minority   ses housepov schoolid classid cooksd
#>    <int>    <int>    <int> <int>    <int> <dbl>    <dbl>    <int>   <int>  <dbl>
#>  1   539      253      290     0        1 -0.4     0.257       47      82 0.0536
#>  2    41     -110      434     0        1 -0.37    0.365        4     179 0.0265
#>  3  1078      203      290     1        1 -0.32    0.067       95     144 0.0256
#>  4   664      -84      629     1        0  2.33    0.17        62      22 0.0245
#>  5   312      138      542     1        0  2.27    0.05        27     104 0.0221
#>  6   754      218      368     0        1 -1.14    0.43        70     152 0.0202
#>  7   337      197      290     1        1 -0.46    0.214       28     203 0.0194
#>  8   723      214      290     1        1 -0.67    0.209       68     244 0.0187
#>  9   812      147      510     0        0 -0.47    0.367       75      42 0.0148
#> 10  1146       11      376     0        1  0.62    0.126      102      44 0.0132
#>    mdffits covtrace covratio leverage.overall
#>      <dbl>    <dbl>    <dbl>            <dbl>
#>  1  0.0527  0.0172      1.02           0.112 
#>  2  0.0264  0.00406     1.00           0.143 
#>  3  0.0250  0.0250      1.03           0.147 
#>  4  0.0242  0.0125      1.01           0.0869
#>  5  0.0219  0.00988     1.01           0.0919
#>  6  0.0200  0.00702     1.01           0.0896
#>  7  0.0190  0.0198      1.02           0.147 
#>  8  0.0183  0.0195      1.02           0.155 
#>  9  0.0147  0.00797     1.01           0.0722
#> 10  0.0131  0.00825     1.01           0.0962
#> # … with 1,180 more rows

There does not appear to be a clear pattern among students who have relatively higher Cook’s distance values; they do not tend to be from a particular school or class. In order to investigate these observations further, one could look to summary statistics for the different explanatory variables. Additionally, a similar analysis could be done with the other influence diagnostics provided in the tibble from hlm_influence().

In addition to identifying influential observations, it may also be useful to identify influential groups. The level parameter in hlm_influence() can be used for this purpose. For example, we can obtain influence diagnostics for each class:

infl.classes <- hlm_influence(class.lmer, level = "classid:schoolid")

#> # A tibble: 312 x 6
#>    `classid:schoolid`   cooksd  mdffits covtrace covratio leverage.overall
#>    <fct>                 <dbl>    <dbl>    <dbl>    <dbl>            <dbl>
#>  1 160:1              0.00224  0.00224   0.00990     1.01           0.0980
#>  2 217:1              0.00133  0.00131   0.0238      1.02           0.128 
#>  3 197:2              0.00323  0.00320   0.0106      1.01           0.123 
#>  4 211:2              0.00724  0.00719   0.0202      1.02           0.0891
#>  5 307:2              0.00346  0.00343   0.0197      1.02           0.152 
#>  6 11:3               0.00116  0.00115   0.0141      1.01           0.0960
#>  7 137:3              0.000873 0.000868  0.0131      1.01           0.150 
#>  8 145:3              0.00517  0.00515   0.0248      1.02           0.0983
#>  9 228:3              0.000479 0.000478  0.00797     1.01           0.126 
#> 10 48:4               0.00371  0.00367   0.0212      1.02           0.134 
#> # … with 302 more rows

Note that the level parameter is set as classid:schoolid, not classid. The level parameter should be specified as found in model@flist for lmerMod objects. For three level models, this usually takes the form of “level2:level3”, where level2 is the name of the second level variable, and level3 is the name of the third level variable.

Using dotplot_diag() again with one of the columns from the resulting tibble of hlm_influence reveals that class 218 has a relatively high Cook’s distance value.

dotplot_diag(infl.classes$cooksd, name = "cooks.distance", cutoff = "internal")

We can repeat a similar analysis to flag influential schools.

infl.schools <- hlm_influence(class.lmer, level = "schoolid")

#> # A tibble: 107 x 6
#>    schoolid   cooksd  mdffits covtrace covratio leverage.overall
#>    <fct>       <dbl>    <dbl>    <dbl>    <dbl>            <dbl>
#>  1 1        0.000561 0.000557   0.0381     1.04           0.0901
#>  2 2        0.00681  0.00672    0.0554     1.06           0.115 
#>  3 3        0.0343   0.0333     0.0723     1.07           0.108 
#>  4 4        0.0248   0.0246     0.0360     1.04           0.125 
#>  5 5        0.00224  0.00223    0.0583     1.06           0.0998
#>  6 6        0.0109   0.0107     0.0690     1.07           0.104 
#>  7 7        0.00576  0.00560    0.0785     1.08           0.108 
#>  8 8        0.0121   0.0118     0.0785     1.08           0.0926
#>  9 9        0.00624  0.00590    0.0793     1.08           0.141 
#> 10 10       0.00848  0.00826    0.0723     1.07           0.0928
#> # … with 97 more rows
…
This example illustrates how to select all four types of leverage, but any one or more may also be selected.

We can then use dotplot_diag() with one of the new leverage columns to investigate outlier for that type of leverage.

dotplot_diag(infl2$leverage.fixef, name = "leverage", cutoff = "internal", modify = "dotplot")

However, further analysis reveals that several observations have high leverage when considering only the leverage corresponding to the fixed effects.

Choose between approximations or full refits with approx

hlm_influence() defaults to calculating influence diagnostics based off a one step approximation (Christensen et.al 1992; Shi and Chen 2008; Zewotir 2008). However, the approx parameter allows the user to calculate influence diagnostics based off a full refit of the data using hlm_influence(). For example, if we wished to calculate influence diagnostics for each school by fully refitting the model each time, we could use:

infl3 <- hlm_influence(class.lmer, level = "schoolid", approx = FALSE)

#> # A tibble: 107 x 9
#>    schoolid   cooksd  mdffits covtrace covratio rvc.sigma2   rvc.D11  rvc.D22
#>    <fct>       <dbl>    <dbl>    <dbl>    <dbl>      <dbl>     <dbl>    <dbl>
#>  1 1        0.000642 0.000639   0.0565    1.06    -0.00262  0.0154    0.0183 
#>  2 2        0.00684  0.00676    0.0423    1.04    -0.00409  0.0161   -0.00403
#>  3 3        0.0389   0.0386     0.0256    0.973    0.00299  0.000124 -0.0952 
#>  4 4        0.0249   0.0253     0.0971    0.906   -0.0315  -0.0293    0.0174 
#>  5 5        0.00222  0.00221    0.0691    1.07    -0.00229  0.0160    0.00997
#>  6 6        0.0111   0.0109     0.0671    1.07     0.00443  0.00323  -0.0198 
#>  7 7        0.00564  0.00546    0.0970    1.10     0.00436  0.0230   -0.0119 
#>  8 8        0.0117   0.0115     0.0653    1.07    -0.00744 -0.0804    0.0574 
#>  9 9        0.00634  0.00598    0.0922    1.09     0.00313  0.00326  -0.00216
#> 10 10       0.00816  0.00790    0.109     1.11     0.00796  0.0220   -0.00935
#>    leverage.overall
#>               <dbl>
#>  1           0.0901
#>  2           0.115 
#>  3           0.108 
#>  4           0.125 
#>  5           0.0998
#>  6           0.104 
#>  7           0.108 
#>  8           0.0926
#>  9           0.141 
#> 10           0.0928
#> # … with 97 more rows
…
classNA <- classroom
classNA[2,3] <- NA
classNA[3,4] <- NA

We can then fit the same model using the lme4 package as before. Below, we fit two models, one with na.action = "na.exclude" and one with the default na.action = "na.omit".

class.lmer.exclude <- lme4::lmer(mathgain ~ mathkind + sex + minority + ses + housepov + (1|schoolid/classid), data = classNA, na.action = "na.exclude")
class.lmer.omit <- lme4::lmer(mathgain ~ mathkind + sex + minority + ses + housepov + (1|schoolid/classid), data = classNA, na.action = "na.omit")

We then run hlm_influence() on the model where na.action = "na.omit".

infl4 <- hlm_influence(class.lmer.omit, level = 1)

#> # A tibble: 1,188 x 14
#>       id mathgain mathkind   sex minority   ses housepov schoolid classid
#>    <int>    <int>    <int> <int>    <int> <dbl>    <dbl>    <int>   <int>
#>  1     1       32      448     1        1  0.46    0.082        1     160
#>  2     2       83      449     0        1 -0.38    0.082        1     217
#>  3     3       53      425     0        1 -0.03    0.082        1     217
#>  4     4       65      450     1        1  0.76    0.082        1     217
#>  5     5       51      452     0        1 -0.03    0.082        1     217
#>  6     6       66      443     0        1  0.2     0.082        1     217
#>  7     7       88      422     1        1  0.64    0.082        1     217
#>  8     8       -7      480     0        1  0.13    0.082        1     217
#>  9     9       60      502     0        1  0.83    0.082        1     217
#> 10    10       -2      502     1        1  0.06    0.082        2     197
#>        cooksd    mdffits covtrace covratio leverage.overall
#>         <dbl>      <dbl>    <dbl>    <dbl>            <dbl>
#>  1 0.000710   0.000708    0.00351     1.00           0.160 
#>  2 0.000295   0.000294    0.00182     1.00           0.0801
#>  3 0.000140   0.000140    0.00183     1.00           0.0801
#>  4 0.00000818 0.00000815  0.00325     1.00           0.0814
#>  5 0.0000145  0.0000144   0.00124     1.00           0.0795
#>  6 0.00000224 0.00000224  0.00127     1.00           0.0796
#>  7 0.000184   0.000183    0.00400     1.00           0.0821
#>  8 0.00111    0.00111     0.00163     1.00           0.0799
#>  9 0.000375   0.000374    0.00338     1.00           0.0815
#> 10 0.00250    0.00248     0.00508     1.01           0.136 
#> # … with 1,178 more rows

Note than there are only 1,188 rows in the returned tibble, although there were 1,190 observations in the original data set. The two rows with NAs were deleted from the returned tibble.

We repeat this with the model where na.action = "na.exclude".

 infl5 <-hlm_influence(class.lmer.exclude, level = 1, data = classNA)

#> # A tibble: 1,190 x 14
#>       id mathgain mathkind   sex minority   ses housepov schoolid classid
#>    <int>    <int>    <int> <int>    <int> <dbl>    <dbl>    <int>   <int>
#>  1     1       32      448     1        1  0.46    0.082        1     160
#>  2     2      109       NA     0        1 -0.27    0.082        1     160
#>  3     3       NA      511     1        1 -0.03    0.082        1     160
#>  4     4       83      449     0        1 -0.38    0.082        1     217
#>  5     5       53      425     0        1 -0.03    0.082        1     217
#>  6     6       65      450     1        1  0.76    0.082        1     217
#>  7     7       51      452     0        1 -0.03    0.082        1     217
#>  8     8       66      443     0        1  0.2     0.082        1     217
#>  9     9       88      422     1        1  0.64    0.082        1     217
#> 10    10       -7      480     0        1  0.13    0.082        1     217
#>         cooksd     mdffits covtrace covratio leverage.overall
#>          <dbl>       <dbl>    <dbl>    <dbl>            <dbl>
#>  1  0.000710    0.000708    0.00351     1.00           0.160 
#>  2 NA          NA          NA          NA             NA     
#>  3 NA          NA          NA          NA             NA     
#>  4  0.000295    0.000294    0.00182     1.00           0.0801
#>  5  0.000140    0.000140    0.00183     1.00           0.0801
#>  6  0.00000818  0.00000815  0.00325     1.00           0.0814
#>  7  0.0000145   0.0000144   0.00124     1.00           0.0795
#>  8  0.00000224  0.00000224  0.00127     1.00           0.0796
#>  9  0.000184    0.000183    0.00400     1.00           0.0821
#> 10  0.00111     0.00111     0.00163     1.00           0.0799
#> # … with 1,180 more rows
…
